…
``` r
total_2017_data = filter(precipitation_data, year == "2017", total != "NA")
total_2017 = sum(total_2017_data$total)
```

The total precipitation in 2017 is 29.93 tons.

What was the median number of sports balls in a dumpster in 2016?
=================================================================

``` r
filter(trash_wheel_data, year == "2016", sports_balls != "NA")
```

    ## # A tibble: 51 x 14
    ##    number month  year date                weight volume plastic_bottles
    ##     <dbl> <chr> <dbl> <dttm>               <dbl>  <dbl>           <dbl>
    ##  1    116 Janu~  2016 2016-01-10 00:00:00   3.6      15            3240
    ##  2    117 Febr~  2016 2016-02-02 00:00:00   4.06     18            3530
    ##  3    118 Febr~  2016 2016-02-03 00:00:00   2.11     15            2340
    ##  4    119 Febr~  2016 2016-02-05 00:00:00   3.01     15            2460
    ##  5    120 Febr~  2016 2016-02-17 00:00:00   3.41     18            1340
    ##  6    121 Febr~  2016 2016-02-19 00:00:00   3.66     15             950
    ##  7    122 Febr~  2016 2016-02-25 00:00:00   4.51     15            2240
    ##  8    123 March  2016 2016-03-01 00:00:00   2.89     18            3050
    ##  9    124 March  2016 2016-03-11 00:00:00   2.89     15            1630
    ## 10    125 March  2016 2016-03-12 00:00:00   2.51     15            1120
    ## # ... with 41 more rows, and 7 more variables: polystyrene <dbl>,
    ## #   cigarette_butts <dbl>, glass_bottles <dbl>, grocery_bags <dbl>,
    ## #   chip_bags <dbl>, sports_balls <int>, homes_powered <dbl>
…
    ## [1] 404

``` r
distinct(structured_brfss, locationabbr) %>% 
  nrow()
```

    ## [1] 51

``` r
count(structured_brfss,locationabbr) %>% 
  arrange(desc(n))
```

    ## # A tibble: 51 x 2
    ##    locationabbr     n
    ##    <chr>        <int>
    ##  1 NJ             146
    ##  2 FL             122
    ##  3 NC             115
    ##  4 WA              97
    ##  5 MD              90
    ##  6 MA              79
    ##  7 TX              71
    ##  8 NY              65
    ##  9 SC              63
    ## 10 CO              59
    ## # ... with 41 more rows
…
